{
	"info": {
		"_postman_id": "d362dfc8-33f9-4f2e-8806-0c6fa6ffe99f",
		"name": "iteration s",
		"schema": "https://schema.getpostman.com/json/collection/v2.0.0/collection.json",
		"_exporter_id": "26632037"
	},
	"item": [
		{
			"name": "post",
			"event": [
				{
					"listen": "test",
					"script": {
						"exec": [
							"//step 1 fetch the response status\r",
							"var status=pm.response.status;\r",
							"var countstart=pm.collectionVariables.get(\"start\");\r",
							"var countend=pm.collectionVariables.get(\"end\");\r",
							"//step 2 compare the status code\r",
							"if(status == \"Create\")\r",
							"{\r",
							"    //step 2.1 validate response status code\r",
							"    pm.test(\"status code is 201\",function(){\r",
							"        pm.response.to.havestatus(201);\r",
							"    });\r",
							"    //step 2.2 set expected results\r",
							"    //step 2.3 generate date in required format\r",
							"    var expectedDate=new Date().toJSON().alic(0,10);\r",
							"    //step 2.4 extract request body\r",
							"    var requestBody=JSON.parse(pm.request.body.raw);\r",
							"    var req_name =requestBody.name;\r",
							"    var req_job = requestBody.job;\r",
							"    //step 3 validate response body\r",
							"    // 3.1 extract response body and save it into local variable\r",
							"    var responseBody =pm.response body parameters from response extracted in step 3.1\r",
							"    var res_name = responseBody.name;\r",
							"    var res_id = responseBody.id;\r",
							"    var res_job = responseBody.job;\r",
							"    var res_CreatedAt=responseBody.createdAt;\r",
							"    //step3.3 validate response body\r",
							"    pm.test(\"validate response Body parameter: NAME\",function(){\r",
							"        pm.expect(res_name).to.eql(req_name);\r",
							"    });\r",
							"    pm.test(\"validate response Body parameter: JOB\",function(){\r",
							"        pm.expect(res_job).to.eql(req_job);\r",
							"    });\r",
							"    pm.test(\"validate response Body parameter: ID\",function(){\r",
							"        pm.expect(res_id).to.not.null;\r",
							"    });\r",
							"    pm.test(\"validate response body parameter: CREATEDAT\",function(){\r",
							"        pm.expect(res_createdAt.slice(0,10)).to.eql(expectedDate);\r",
							"    }):\r",
							"}\r",
							"else\r",
							"if(countstart<countend)\r",
							"{\r",
							"    pm.collectionVariables.set(\"start\",eval(countstart+1));\r",
							"    console.log(pm.collectionVariables.get(\"start\"));\r",
							"    postman.setNextRequest(\"POST_TC2\");\r",
							"}\r",
							"else\r",
							"{\r",
							"    postman.setNextRequest(null)\r",
							"    pm.collectionVariables.set(\"start\",0);\r",
							"    pm.test(\"status code is 200\",function () {\r",
							"        pm.response.to.havestatus(200);\r",
							"    });\r",
							"}\r",
							"}"
						],
						"type": "text/javascript"
					}
				}
			],
			"request": {
				"method": "POST",
				"header": [],
				"body": {
					"mode": "raw",
					"raw": "{\r\n    \"name\": \"morpheus\",\r\n    \"job\": \"leader\"\r\n}",
					"options": {
						"raw": {
							"language": "json"
						}
					}
				},
				"url": "https://reqres.in/api/users"
			},
			"response": []
		}
	],
	"event": [
		{
			"listen": "prerequest",
			"script": {
				"type": "text/javascript",
				"exec": [
					""
				]
			}
		},
		{
			"listen": "test",
			"script": {
				"type": "text/javascript",
				"exec": [
					""
				]
			}
		}
	],
	"variable": [
		{
			"key": "name",
			"value": "",
			"type": "string"
		},
		{
			"key": "job",
			"value": "",
			"type": "string"
		}
	]
}