{
	"info": {
		"_postman_id": "70dbd41b-a792-4709-98dd-2ef9d98faf99",
		"name": "newman123",
		"schema": "https://schema.getpostman.com/json/collection/v2.0.0/collection.json",
		"_exporter_id": "26632037"
	},
	"item": [
		{
			"name": "New Request",
			"event": [
				{
					"listen": "test",
					"script": {
						"exec": [
							"//step1: validate status code\r",
							"pm.test(\"Status code is 201\", function () {\r",
							"    pm.response.to.have.status(201);\r",
							"});\r",
							"//step2: set expected result\r",
							"//step2.1:extract request body\r",
							"var requestbody=pm.request.body.raw\r",
							"var requestbody=JSON.parse(requestbody)\r",
							"console.log(requestbody)\r",
							"// extract requestbody parameter\r",
							"var req_name=requestbody.name\r",
							"console.log(req_name)\r",
							"var req_job=requestbody.job;\r",
							"var req_id=requestbody.id;\r",
							"var req_createdAt=requestbody.createdAt\r",
							"\r",
							"//step2.1: extract  response body and save into local variable\r",
							"var responsebody=pm.response.json();\r",
							"console.log(responsebody)\r",
							"//step2.2: extract response body parameter\r",
							"var res_name=responsebody.name\r",
							"console.log(res_name)\r",
							"var res_job=responsebody.job\r",
							"console.log(res_job)\r",
							"var res_id=responsebody.id\r",
							"console.log(res_id)\r",
							"var res_createdAt=responsebody.createdAt\r",
							"console.log(res_createdAt.slice(0,13))\r",
							"\r",
							"var expectedDate=new Date().toJSON().slice(0,13)\r",
							"console.log(expectedDate)\r",
							"\r",
							"//step2.2: validate responsebody\r",
							"pm.test(\"validate responsebody parameter:NAME\",function(){\r",
							" pm.expect(res_name).to.eql(req_name)   \r",
							"})\r",
							"pm.test(\"validate responsebody parameter:job\",function(){\r",
							" pm.expect(res_job).to.eql(req_job)   \r",
							"})\r",
							"pm.test(\"validate responsebody parameter:id\",function(){\r",
							"pm.expect(res_id).to.not. null    \r",
							"})\r",
							"pm.test(\"validate responsebody parameter:createdAt\",function(){\r",
							"pm.expect(res_createdAt.slice(0,13)).to.eql(expectedDate)    \r",
							"})\r",
							"\r",
							""
						],
						"type": "text/javascript"
					}
				}
			],
			"request": {
				"method": "POST",
				"header": [],
				"body": {
					"mode": "raw",
					"raw": "{\r\n    \"name\": \"morpheus\",\r\n    \"job\": \"leader\"\r\n}",
					"options": {
						"raw": {
							"language": "json"
						}
					}
				},
				"url": "https://reqres.in/api/users"
			},
			"response": []
		}
	]
}